\relax 
\@writefile{toc}{\contentsline {section}{\numberline {1}Client}{1}\protected@file@percent }
\@writefile{toc}{\contentsline {paragraph}{Attribute requirements}{1}\protected@file@percent }
\@writefile{toc}{\contentsline {section}{\numberline {2}Project}{1}\protected@file@percent }
\@writefile{toc}{\contentsline {paragraph}{Identifier}{1}\protected@file@percent }
\@writefile{toc}{\contentsline {section}{\numberline {3}Worker}{2}\protected@file@percent }
\@writefile{toc}{\contentsline {subsection}{\numberline {3.1}Manager}{2}\protected@file@percent }
\@writefile{toc}{\contentsline {subsection}{\numberline {3.2}Developer}{2}\protected@file@percent }
\@writefile{toc}{\contentsline {section}{\numberline {4}Task}{2}\protected@file@percent }
\@writefile{toc}{\contentsline {paragraph}{Identifier}{2}\protected@file@percent }
\@writefile{toc}{\contentsline {section}{\numberline {5}Formal requirements}{2}\protected@file@percent }
