\relax 
\@writefile{toc}{\contentsline {paragraph}{Client}{1}\protected@file@percent }
\@writefile{toc}{\contentsline {paragraph}{Project}{1}\protected@file@percent }
\@writefile{toc}{\contentsline {paragraph}{Task}{1}\protected@file@percent }
\@writefile{toc}{\contentsline {paragraph}{Asignment}{1}\protected@file@percent }
\@writefile{toc}{\contentsline {paragraph}{Worker}{1}\protected@file@percent }
\@writefile{toc}{\contentsline {paragraph}{Manager}{1}\protected@file@percent }
\@writefile{toc}{\contentsline {paragraph}{Developer}{1}\protected@file@percent }
